TextPrep
…
Finally, we will then load our artificial dataset from the Olympic summer games.

url <- "https://raw.githubusercontent.com/YannikPeters/DQ_Tool_TextPreprocessing/main/data/Olympics_Summer_1_2024.csv"
olympics_data <- readr::read_csv(url, locale = locale(encoding = "Latin1"))
olympics_data

# A tibble: 150 × 12
     no. tweet_id user_id timestamp   tweet_text subtopic language retweet_count
   <dbl>    <dbl>   <dbl> <chr>       <chr>      <chr>    <chr>            <dbl>
 1     1      226     139 09-08-2024… The pool … Swimmin… en                  12
 2     2    68257     133 31-07-2024… The fight… Doping … en                  47
 3     3    44351     197 06-08-2024… THE JOY O… Gold Me… en                  28
 4     4    95759     170 08-08-2024… Quel chem… Gold Me… fr                  34
 5     5    11173     106 27-07-2024… The inten… Wrestli… en                  46
 6     6    23334     177 28-07-2024… We must s… Doping … en                  39
 7     7    49688     160 04-08-2024… The culmi… Gold Me… en                   8
 8     8    39066     196 01-08-2024… Cheering … Maratho… en                  31
 9     9    81586     198 31-07-2024… Jede Leis… Athlete… de                   9
10    10    45338     134 03-08-2024… What a ga… Basketb… en                  16
# ℹ 140 more rows
# ℹ 4 more variables: like_count <dbl>, reply_count <dbl>, quote_count <dbl>,
#   source <chr>
…
olympics_data_en_deepl_full <- rbind(olympics_data_en, olympics_data_de_deepl, olympics_data_fr_deepl)
olympics_data_en_google_full <- rbind(olympics_data_en, olympics_data_de_google, olympics_data_fr_google)

cosine_similarities_full <- textTinyR::COS_TEXT(olympics_data_en_deepl_full$tweet_text, olympics_data_en_google_full$tweet_text, separator = " ")
mean(cosine_similarities_full)

[1] 0.9820347

The key question for us is now: Should we use the translation of DeepL or Google Translate? Generally, DeepL is considered to be more accurate than Google Translate (e.g. here). Still, Google Translate has proven to be highly accurate for calculating topic models (Vries, Schoonvelde, and Schumacher 2018). In current research, both tools are considered suitable. For the translation of Spanish idiomatic expressions into English, Hidalgo-Ternero (2021) found DeepL to perform slightly better, with an average accuracy rate of 89%, than Google Translate at 86%. Sebo and Lucia (2024) did not find significant differences in the accuracy of the two tools. One of the major advantages of Google Translate is that it can be applied to significantly more languages than DeepL. As we had to translate only two languages in our example data, we will use DeepL for this example.

url_2 <- "https://raw.githubusercontent.com/YannikPeters/DQ_Tool_TextPreprocessing/main/data/olympics_data_en_deepl_full.csv"
olympics_data_en_full <- readr::read_csv(url_2, locale = locale(encoding = "Latin1"))
olympics_data_en_full

# A tibble: 150 × 12
     no. tweet_id user_id timestamp   tweet_text subtopic language retweet_count
   <dbl>    <dbl>   <dbl> <chr>       <chr>      <chr>    <chr>            <dbl>
 1     1      226     139 09-08-2024… The pool … Swimmin… en                  12
 2     2    68257     133 31-07-2024… The fight… Doping … en                  47
 3     3    44351     197 06-08-2024… THE JOY O… Gold Me… en                  28
 4     5    11173     106 27-07-2024… The inten… Wrestli… en                  46
 5     6    23334     177 28-07-2024… We must s… Doping … en                  39
 6     7    49688     160 04-08-2024… The culmi… Gold Me… en                   8
 7     8    39066     196 01-08-2024… Cheering … Maratho… en                  31
 8    10    45338     134 03-08-2024… What a ga… Basketb… en                  16
 9    11    24439     117 11-08-2024… We must s… Doping … en                  11
10    12    32959     110 06-08-2024… The spiri… Maratho… en                  44
# ℹ 140 more rows
# ℹ 4 more variables: like_count <dbl>, reply_count <dbl>, quote_count <dbl>,
#   source <chr>
…
